<?xml version="1.0" encoding="UTF-8" standalone="no"?>
<!-- Created with Inkscape (http://www.inkscape.org/) -->

<svg
   xmlns:dc="http://purl.org/dc/elements/1.1/"
   xmlns:cc="http://creativecommons.org/ns#"
   xmlns:rdf="http://www.w3.org/1999/02/22-rdf-syntax-ns#"
   xmlns:svg="http://www.w3.org/2000/svg"
   xmlns="http://www.w3.org/2000/svg"
   xmlns:sodipodi="http://sodipodi.sourceforge.net/DTD/sodipodi-0.dtd"
   xmlns:inkscape="http://www.inkscape.org/namespaces/inkscape"
   width="210mm"
   height="297mm"
   viewBox="0 0 210 297"
   version="1.1"
   id="svg8"
   inkscape:version="0.92.2 (5c3e80d, 2017-08-06)"
   sodipodi:docname="flumel.svg"
   inkscape:export-filename="/home/renaud/canarduck/flumel/flumel.png"
   inkscape:export-xdpi="149"
   inkscape:export-ydpi="149">
  <defs
     id="defs2" />
  <sodipodi:namedview
     id="base"
     pagecolor="#ffffff"
     bordercolor="#666666"
     borderopacity="1.0"
     inkscape:pageopacity="0.0"
     inkscape:pageshadow="2"
     inkscape:zoom="1.2441406"
     inkscape:cx="248.89167"
     inkscape:cy="527.84928"
     inkscape:document-units="mm"
     inkscape:current-layer="layer2"
     showgrid="false"
     inkscape:window-width="1920"
     inkscape:window-height="1080"
     inkscape:window-x="0"
     inkscape:window-y="0"
     inkscape:window-maximized="1" />
  <metadata
     id="metadata5">
    <rdf:RDF>
      <cc:Work
         rdf:about="">
        <dc:format>image/svg+xml</dc:format>
        <dc:type
           rdf:resource="http://purl.org/dc/dcmitype/StillImage" />
        <dc:title />
      </cc:Work>
    </rdf:RDF>
  </metadata>
  <g
     inkscape:label="Calque 1"
     inkscape:groupmode="layer"
     id="layer1">
    <path
       id="path837"
       d="m 170.16687,149.59909 c 1.03187,-0.82021 2.56646,-0.0529 2.56646,1.24354 v 54.10729 c 0,7.01146 -5.68854,12.7 -12.69999,12.7 H 49.966665 c -7.011458,0 -12.7,-5.68854 -12.7,-12.7 v -54.08083 c 0,-1.32292 1.508125,-2.06375 2.566458,-1.24354 5.926667,4.60375 13.784792,10.45104 40.772292,30.05666 5.582706,4.07458 15.001876,12.64708 24.394585,12.59417 9.44562,0.0794 19.05,-8.67834 24.42104,-12.59417 26.98749,-19.60562 34.81916,-25.47937 40.74583,-30.08312 z M 105,183.78325 c 6.13833,0.10584 14.97541,-7.72583 19.42041,-10.95375 35.11021,-25.47937 37.7825,-27.70187 45.87875,-34.05187 1.53458,-1.19062 2.43417,-3.04271 2.43417,-5.00062 v -5.02709 c 0,-7.01145 -5.68855,-12.7 -12.7,-12.7 H 49.966665 c -7.011458,0 -12.7,5.68855 -12.7,12.7 v 5.02709 c 0,1.95791 0.899583,3.78354 2.434167,5.00062 8.09625,6.32354 10.768541,8.5725 45.878749,34.05187 4.445,3.22792 13.28208,11.05959 19.420419,10.95375 z"
       inkscape:connector-curvature="0"
       style="fill:#3f51b5;fill-opacity:1;stroke-width:0.26458332" />
  </g>
  <g
     inkscape:groupmode="layer"
     id="layer2"
     inkscape:label="Calque 2">
    <path
       id="path826"
       d="m 95.248399,157.03026 c 0,3.36422 -2.914923,6.09144 -6.510708,6.09144 -3.595772,0 -6.510594,-2.72722 -6.510594,-6.09144 0,-3.3642 2.914923,-6.09142 6.510695,-6.09142 3.595786,0 6.510607,2.72731 6.510607,6.09142 z m 17.858431,4.49431 c -0.84931,-14.70518 -13.438564,-26.49853 -29.172687,-27.294 -0.928701,-0.0469 -1.707046,0.65118 -1.707046,1.52131 v 4.57221 c 0,0.80041 0.659797,1.47166 1.513471,1.52359 11.369369,0.69285 20.482692,9.19807 21.224742,19.8579 0.0557,0.79871 0.77305,1.41602 1.62846,1.41602 h 4.88692 c 0.93014,1e-4 1.67635,-0.72812 1.62614,-1.59703 z m 14.66502,0.0275 c -0.85338,-22.24041 -19.97965,-40.2397 -43.866984,-41.04201 -0.918035,-0.0309 -1.677769,0.66306 -1.677769,1.52244 v 4.57212 c 0,0.82039 0.694868,1.48812 1.571012,1.52179 19.436151,0.74562 35.036401,15.344 35.833241,33.52563 0.0359,0.81972 0.74958,1.46985 1.62654,1.46985 h 4.88681 c 0.91844,-9e-5 1.66008,-0.71091 1.62715,-1.56982 z"
       inkscape:connector-curvature="0"
       style="fill:#ff5722;fill-opacity:1;stroke-width:0.09833664" />
  </g>
</svg>
